{
  "project_info": {
    "project_number": "464342700851",
    "firebase_url": "https://ants-insight-sdk.firebaseio.com",
    "project_id": "ants-insight-sdk",
    "storage_bucket": "ants-insight-sdk.appspot.com"
  },
  "client": [
    {
      "client_info": {
        "mobilesdk_app_id": "1:464342700851:android:29c4b150b65e86ac3f6446",
        "android_client_info": {
          "package_name": "ants.mobile.ants_insight"
        }
      },
      "oauth_client": [
        {
          "client_id": "464342700851-u23kpj2hol1ihc8ln1gdf26cjkgoi6at.apps.googleusercontent.com",
          "client_type": 1,
          "android_info": {
            "package_name": "ants.mobile.ants_insight",
            "certificate_hash": "947ee3798ce8fae575d23b3f5489ae1881f88bb9"
          }
        },
        {
          "client_id": "464342700851-v8q9ajbicvn76diultq8o9n4vu8rhv76.apps.googleusercontent.com",
          "client_type": 3
        }
      ],
      "api_key": [
        {
          "current_key": "AIzaSyCbdZmp5F8T_xKMfMvTVBWng0KGn-LPBJ8"
        }
      ],
      "services": {
        "appinvite_service": {
          "other_platform_oauth_client": [
            {
              "client_id": "464342700851-v8q9ajbicvn76diultq8o9n4vu8rhv76.apps.googleusercontent.com",
              "client_type": 3
            }
          ]
        }
      }
    }
  ],
  "configuration_version": "1"
}